[gd_scene load_steps=4 format=3 uid="uid://cqku7r4yih0ye"]

[ext_resource type="Script" path="res://jogador.gd" id="1_htdoi"]
[ext_resource type="Texture2D" uid="uid://b16yxbl1ur5ws" path="res://icon.svg" id="1_xxtl8"]

[sub_resource type="RectangleShape2D" id="RectangleShape2D_jsa1d"]
size = Vector2(128, 128)

[node name="Jogador" type="Node2D"]

[node name="CharacterBody2D" type="CharacterBody2D" parent="."]
script = ExtResource("1_htdoi")

[node name="Sprite2D" type="Sprite2D" parent="CharacterBody2D"]
texture = ExtResource("1_xxtl8")

[node name="CollisionShape2D" type="CollisionShape2D" parent="CharacterBody2D"]
position = Vector2(-0.5, -1)
shape = SubResource("RectangleShape2D_jsa1d")
