[gd_scene load_steps=3 format=3 uid="uid://c5vj71pqbaef4"]

[ext_resource type="Texture2D" uid="uid://bdbgrp7r8rinc" path="res://quadrado.png" id="1_qahlh"]

[sub_resource type="RectangleShape2D" id="RectangleShape2D_f3ip7"]
size = Vector2(50, 50)

[node name="plataforma" type="Node2D"]

[node name="StaticBody2D" type="StaticBody2D" parent="."]

[node name="Sprite2D" type="Sprite2D" parent="StaticBody2D"]
texture = ExtResource("1_qahlh")

[node name="CollisionShape2D" type="CollisionShape2D" parent="StaticBody2D"]
position = Vector2(-0.5, 0)
shape = SubResource("RectangleShape2D_f3ip7")
