[gd_scene load_steps=4 format=3 uid="uid://bmp63cohj1qb1"]

[ext_resource type="Script" path="res://Principal.gd" id="1_5wiw1"]
[ext_resource type="PackedScene" uid="uid://cqku7r4yih0ye" path="res://jogador.tscn" id="1_lkdy2"]
[ext_resource type="Script" path="res://criador_inimigos.gd" id="4_pk6ky"]

[node name="Principal" type="Node2D"]
script = ExtResource("1_5wiw1")

[node name="Jogador" parent="." instance=ExtResource("1_lkdy2")]

[node name="criador_inimigos" type="Node2D" parent="."]
position = Vector2(656, 29)
script = ExtResource("4_pk6ky")
